\relax 
\citation{MRI}
\citation{TVRSJ}
\@writefile{toc}{\contentsline {chapter}{\numberline {第{1}章}序論 }{1}}
\@writefile{lof}{\addvspace {10pt}}
\@writefile{lot}{\addvspace {10pt}}
\newlabel{chapter1}{{1}{1}}
\citation{survey1}
\citation{survey2}
\citation{センサ論文a}
\citation{センサ論文b}
\@writefile{toc}{\contentsline {chapter}{\numberline {第{2}章}研究の背景と目的 }{2}}
\@writefile{lof}{\addvspace {10pt}}
\@writefile{lot}{\addvspace {10pt}}
\newlabel{chap2}{{2}{2}}
\@writefile{toc}{\contentsline {section}{\numberline {2.1}研究の背景}{2}}
\newlabel{background}{{2.1}{2}}
\@writefile{toc}{\contentsline {subsection}{\numberline {2.1.1}Augmented Realityにおけるトラッキング技術}{2}}
\citation{RANSAC}
\citation{keypoint2}
\citation{keySSD}
\citation{keyNCC}
\@writefile{toc}{\contentsline {subsection}{\numberline {2.1.2}ビジョンベースのリローカリゼーション手法}{3}}
\citation{InfiniTAM}
\@writefile{toc}{\contentsline {subsection}{\numberline {2.1.3}環境再構成モデルを用いたリローカリゼーション}{4}}
\@writefile{toc}{\contentsline {section}{\numberline {2.2}研究の目的}{4}}
\citation{RandomizedFern2}
\@writefile{toc}{\contentsline {chapter}{\numberline {第{3}章}環境再構成モデルを用いたデータベース構築手法の開発 }{5}}
\@writefile{lof}{\addvspace {10pt}}
\@writefile{lot}{\addvspace {10pt}}
\newlabel{chapter3}{{3}{5}}
\@writefile{toc}{\contentsline {section}{\numberline {3.1}既存のリローカリゼーション手法とその問題点}{5}}
\citation{InfiniTAMcolor}
\@writefile{toc}{\contentsline {section}{\numberline {3.2}環境再構成モデルを用いたリローカリゼーションの処理の流れ}{6}}
\newlabel{flow_sec}{{3.2}{6}}
\@writefile{toc}{\contentsline {subsection}{\numberline {3.2.1}環境再構成モデルの作成}{6}}
\newlabel{hole}{{3.2.1}{6}}
\@writefile{toc}{\contentsline {subsection}{\numberline {3.2.2}キーフレームデータベースの構築}{7}}
\newlabel{}{{3.2.2}{7}}
\newlabel{backcutblockhd}{{3.1}{8}}
\@writefile{toc}{\contentsline {subsection}{\numberline {3.2.3}類似画像検索}{8}}
\newlabel{search}{{3.2.3}{8}}
\@writefile{toc}{\contentsline {section}{\numberline {3.3}キーフレームデータベース構築手法の提案}{8}}
\newlabel{propose}{{3.3}{8}}
\@writefile{toc}{\contentsline {subsection}{\numberline {3.3.1}等間隔サンプリング法}{9}}
\newlabel{interval_subsec}{{3.3.1}{9}}
\@writefile{toc}{\contentsline {subsection}{\numberline {3.3.2}全域ランダムサンプリング法}{10}}
\newlabel{random_subsec}{{3.3.2}{10}}
\@writefile{toc}{\contentsline {subsection}{\numberline {3.3.3}ランダムウォークサンプリング法}{10}}
\@writefile{toc}{\contentsline {subsection}{\numberline {3.3.4}深度値標準偏差サンプリング法}{11}}
\@writefile{toc}{\contentsline {chapter}{\numberline {第{4}章}提案手法の評価 }{13}}
\@writefile{lof}{\addvspace {10pt}}
\@writefile{lot}{\addvspace {10pt}}
\newlabel{chapter4}{{4}{13}}
\@writefile{toc}{\contentsline {section}{\numberline {4.1}評価の目的と概要}{13}}
\@writefile{toc}{\contentsline {section}{\numberline {4.2}評価の方法}{13}}
\@writefile{toc}{\contentsline {subsection}{\numberline {4.2.1}評価に用いる指標}{13}}
\newlabel{criteria}{{4.2.1}{13}}
\newlabel{cover_rate}{{4.1}{14}}
\newlabel{trans}{{4.2}{14}}
\newlabel{rot}{{4.3}{14}}
\newlabel{success_rate}{{4.4}{14}}
\@writefile{toc}{\contentsline {subsection}{\numberline {4.2.2}評価用データセットの作成}{15}}
\newlabel{datasets}{{4.2.2}{15}}
\@writefile{toc}{\contentsline {subsection}{\numberline {4.2.3}評価の手順}{15}}
\@writefile{toc}{\contentsline {section}{\numberline {4.3}評価の結果と考察}{17}}
\@writefile{toc}{\contentsline {subsection}{\numberline {4.3.1}キーフレームデータベースの構築時間}{17}}
\@writefile{toc}{\contentsline {subsection}{\numberline {4.3.2}領域カバー率}{18}}
\newlabel{cover_subsec}{{4.3.2}{18}}
\@writefile{toc}{\contentsline {subsection}{\numberline {4.3.3}リローカリゼーションの成功率}{18}}
\newlabel{late}{{4.3.3}{18}}
\@writefile{toc}{\contentsline {subsection}{\numberline {4.3.4}リローカリゼーションの所要時間}{19}}
\@writefile{toc}{\contentsline {chapter}{\numberline {第{5}章}結論 }{20}}
\@writefile{lof}{\addvspace {10pt}}
\@writefile{lot}{\addvspace {10pt}}
\newlabel{chapter5}{{5}{20}}
\@writefile{toc}{\contentsline {chapter}{謝 辞}{21}}
\@writefile{lof}{\addvspace {10pt}}
\@writefile{lot}{\addvspace {10pt}}
\bibcite{MRI}{1}
\bibcite{TVRSJ}{2}
\bibcite{survey1}{3}
\bibcite{survey2}{4}
\bibcite{センサ論文a}{5}
\bibcite{センサ論文b}{6}
\bibcite{RANSAC}{7}
\bibcite{keypoint2}{8}
\bibcite{keySSD}{9}
\bibcite{keyNCC}{10}
\@writefile{toc}{\contentsline {chapter}{参 考 文 献}{22}}
\@writefile{lof}{\addvspace {10pt}}
\@writefile{lot}{\addvspace {10pt}}
\bibcite{InfiniTAM}{11}
\bibcite{RandomizedFern2}{12}
\bibcite{InfiniTAMcolor}{13}
\bibcite{trackmark}{14}
\@writefile{toc}{\contentsline {chapter}{\numberline {付 録{A} }Randomized Fernの詳細 }{24}}
\@writefile{lof}{\addvspace {10pt}}
\@writefile{lot}{\addvspace {10pt}}
\newlabel{fern_app}{{A}{24}}
\newlabel{block_app}{{A.1}{24}}
\citation{trackmark}
\@writefile{toc}{\contentsline {chapter}{\numberline {付 録{B} }2つのカメラ姿勢の差 }{26}}
\@writefile{lof}{\addvspace {10pt}}
\@writefile{lot}{\addvspace {10pt}}
\newlabel{cameradif}{{B}{26}}
\newlabel{disd1}{{B.1}{26}}
\newlabel{rotm}{{B.2}{26}}
\newlabel{rotd1}{{B.3}{26}}
\@writefile{lof}{\contentsline {figure}{\numberline {2.1}{\ignorespaces マーカレスのトラッキングにおけるリローカリゼーションの役割}}{27}}
\newlabel{reloc}{{2.1}{27}}
\@writefile{lof}{\contentsline {figure}{\numberline {2.2}{\ignorespaces キーフレームベースのリローカリゼーション}}{27}}
\newlabel{reloc_about}{{2.2}{27}}
\@writefile{lof}{\contentsline {figure}{\numberline {2.3}{\ignorespaces 既存のリローカリゼーション手法の問題点}}{28}}
\newlabel{kizon}{{2.3}{28}}
\@writefile{lof}{\contentsline {figure}{\numberline {3.1}{\ignorespaces 環境再構成モデルを用いたリローカリゼーションの処理の流れ}}{29}}
\newlabel{flow}{{3.1}{29}}
\@writefile{lof}{\contentsline {figure}{\numberline {3.2}{\ignorespaces 深度カメラから得られる画像とInfiniTAMにより構築される環境再構成モデル}}{30}}
\newlabel{infinitam}{{3.2}{30}}
\@writefile{lof}{\contentsline {figure}{\numberline {3.3}{\ignorespaces 環境再構成モデルの無効領域（赤色部分）}}{31}}
\newlabel{back}{{3.3}{31}}
\@writefile{lof}{\contentsline {figure}{\numberline {3.4}{\ignorespaces 無効領域を除外したGaussian Blur}}{32}}
\newlabel{gauss}{{3.4}{32}}
\@writefile{lof}{\contentsline {figure}{\numberline {3.5}{\ignorespaces 無効領域を除外したRandomized Fernの符号化}}{33}}
\newlabel{backfern}{{3.5}{33}}
\@writefile{lof}{\contentsline {figure}{\numberline {3.6}{\ignorespaces 無効領域を除外したBlock HDの計算}}{33}}
\newlabel{blockhd}{{3.6}{33}}
\@writefile{lof}{\contentsline {figure}{\numberline {3.7}{\ignorespaces 等間隔サンプリング法によるキーフレームデータベース構築}}{34}}
\newlabel{interval}{{3.7}{34}}
\@writefile{lof}{\contentsline {figure}{\numberline {3.8}{\ignorespaces 全域ランダムサンプリング法によるキーフレームデータベース構築}}{34}}
\newlabel{random}{{3.8}{34}}
\@writefile{lof}{\contentsline {figure}{\numberline {3.9}{\ignorespaces ランダムウォークサンプリング法によるキーフレームデータベース構築}}{35}}
\newlabel{randomwalk}{{3.9}{35}}
\@writefile{lof}{\contentsline {figure}{\numberline {3.10}{\ignorespaces 深度値標準偏差サンプリング法によるキーフレームデータベース構築}}{35}}
\newlabel{dispersion}{{3.10}{35}}
\@writefile{lof}{\contentsline {figure}{\numberline {4.1}{\ignorespaces 原子炉廃止措置研究開発センターの充填ポンプ室}}{36}}
\newlabel{fugen}{{4.1}{36}}
\@writefile{lof}{\contentsline {figure}{\numberline {4.2}{\ignorespaces 充填ポンプ室のレイアウト}}{36}}
\newlabel{pumproom}{{4.2}{36}}
\@writefile{lof}{\contentsline {figure}{\numberline {4.3}{\ignorespaces 撮影開始位置の異なる映像の座標系}}{37}}
\newlabel{xyz_wrong}{{4.3}{37}}
\@writefile{lof}{\contentsline {figure}{\numberline {4.4}{\ignorespaces 環境内に設置した三脚}}{37}}
\newlabel{stand}{{4.4}{37}}
\@writefile{lof}{\contentsline {figure}{\numberline {4.5}{\ignorespaces 環境撮影の様子}}{38}}
\newlabel{recording}{{4.5}{38}}
\@writefile{lot}{\contentsline {table}{\numberline {4.1}{\ignorespaces Microsoft Xbox One Kinectの仕様}}{38}}
\newlabel{camera}{{4.1}{38}}
\@writefile{lof}{\contentsline {figure}{\numberline {4.6}{\ignorespaces 充填ポンプ室内のArea1の位置}}{39}}
\newlabel{area1map}{{4.6}{39}}
\@writefile{lof}{\contentsline {figure}{\numberline {4.7}{\ignorespaces Area1を撮影したカメラの軌道}}{39}}
\newlabel{area1}{{4.7}{39}}
\@writefile{lof}{\contentsline {figure}{\numberline {4.8}{\ignorespaces 充填ポンプ室内のArea2の位置}}{40}}
\newlabel{area2map}{{4.8}{40}}
\@writefile{lof}{\contentsline {figure}{\numberline {4.9}{\ignorespaces Area2を撮影したカメラの軌道}}{40}}
\newlabel{area2}{{4.9}{40}}
\@writefile{lof}{\contentsline {figure}{\numberline {4.10}{\ignorespaces 充填ポンプ室内のArea3の位置}}{41}}
\newlabel{area3map}{{4.10}{41}}
\@writefile{lof}{\contentsline {figure}{\numberline {4.11}{\ignorespaces Area3を撮影したカメラの軌道}}{41}}
\newlabel{area3}{{4.11}{41}}
\@writefile{lot}{\contentsline {table}{\numberline {4.2}{\ignorespaces 環境再構成モデルの作成に使用したPCの仕様}}{42}}
\newlabel{PC_model}{{4.2}{42}}
\@writefile{lot}{\contentsline {table}{\numberline {4.3}{\ignorespaces エリアごとのパラメータの範囲}}{42}}
\newlabel{range}{{4.3}{42}}
\@writefile{lot}{\contentsline {table}{\numberline {4.4}{\ignorespaces Area1を等間隔サンプリング法でサンプリングしたときのキーフレーム数と移動間隔}}{42}}
\newlabel{interval_1}{{4.4}{42}}
\@writefile{lot}{\contentsline {table}{\numberline {4.5}{\ignorespaces Area2を等間隔サンプリング法でサンプリングしたときのキーフレーム数と移動間隔}}{42}}
\newlabel{interval_2}{{4.5}{42}}
\@writefile{lot}{\contentsline {table}{\numberline {4.6}{\ignorespaces Area3を等間隔サンプリング法でサンプリングしたときのキーフレーム数と移動間隔}}{43}}
\newlabel{interval_3}{{4.6}{43}}
\@writefile{lot}{\contentsline {table}{\numberline {4.7}{\ignorespaces 無効領域を考慮したRandomized Fernのパラメータ}}{43}}
\newlabel{fern_para}{{4.7}{43}}
\@writefile{lot}{\contentsline {table}{\numberline {4.8}{\ignorespaces エリアごとのランダムウォークサンプリング法の移動範囲の最小値}}{43}}
\newlabel{randomwalk_min}{{4.8}{43}}
\@writefile{lot}{\contentsline {table}{\numberline {4.9}{\ignorespaces Area1を深度値標準偏差サンプリング法でサンプリングしたときのキーフレーム数と移動単位}}{43}}
\newlabel{depth_1}{{4.9}{43}}
\@writefile{lot}{\contentsline {table}{\numberline {4.10}{\ignorespaces Area2を深度値標準偏差サンプリング法でサンプリングしたときのキーフレーム数と移動単位}}{44}}
\newlabel{depth_2}{{4.10}{44}}
\@writefile{lot}{\contentsline {table}{\numberline {4.11}{\ignorespaces Area3を深度値標準偏差サンプリング法でサンプリングしたときのキーフレーム数と移動単位}}{44}}
\newlabel{depth_3}{{4.11}{44}}
\@writefile{lot}{\contentsline {table}{\numberline {4.12}{\ignorespaces キーフレームデータベースの構築と評価に使用したPCの仕様}}{44}}
\newlabel{PC_sample}{{4.12}{44}}
\@writefile{lot}{\contentsline {table}{\numberline {4.13}{\ignorespaces 利用したソフトウェアおよびライブラリ}}{44}}
\newlabel{library}{{4.13}{44}}
\@writefile{lof}{\contentsline {figure}{\numberline {4.12}{\ignorespaces 各キーフレームデータベース構築手法で構築されたデータベースのキーフレーム数とキーフレームデータベース構築時間}}{45}}
\newlabel{sample}{{4.12}{45}}
\@writefile{lof}{\contentsline {figure}{\numberline {4.13}{\ignorespaces 各キーフレームデータベース構築手法で構築されたデータベースのキーフレーム数と領域カバー率}}{46}}
\newlabel{cover}{{4.13}{46}}
\@writefile{lof}{\contentsline {figure}{\numberline {4.14}{\ignorespaces 各キーフレームデータベース構築手法で構築されたデータベースのキーフレーム数とリローカリゼーションの成功率}}{47}}
\newlabel{success}{{4.14}{47}}
\@writefile{lof}{\contentsline {figure}{\numberline {4.15}{\ignorespaces キーフレームデータベースのキーフレーム数とリローカリゼーションの所要時間}}{48}}
\newlabel{runtime}{{4.15}{48}}
\@writefile{lof}{\contentsline {figure}{\numberline {A.1}{\ignorespaces Randomized Fernにおける画像の符号化 }}{49}}
\newlabel{fern1}{{A.1}{49}}
\@writefile{lof}{\contentsline {figure}{\numberline {A.2}{\ignorespaces Randomized Fernにおける画像の類似度の評価}}{49}}
\newlabel{fern2}{{A.2}{49}}
